{
  "LuaSnip": { "branch": "master", "commit": "954c81b53989097faaff0fabc11c29575288c3e1" },
  "auto-indent.nvim": { "branch": "main", "commit": "46801cf8857d42a20a73c40b0a5d3dfe8b2b6192" },
  "cmp-buffer": { "branch": "main", "commit": "3022dbc9166796b644a841a02de8dd1cc1d311fa" },
  "cmp-nvim-lsp": { "branch": "main", "commit": "44b16d11215dce86f253ce0c30949813c0a90765" },
  "cmp_luasnip": { "branch": "master", "commit": "05a9ab28b53f71d1aece421ef32fee2cb857a843" },
  "conform.nvim": { "branch": "master", "commit": "66affb4034ee6d77160f0aed99b615fad311ce14" },
  "fidget.nvim": { "branch": "main", "commit": "dfbda75ecce2eab59ef794ac6753e09caed7b613" },
  "flash.nvim": { "branch": "main", "commit": "48817af25f51c0590653bbc290866e4890fe1cbe" },
  "friendly-snippets": { "branch": "main", "commit": "53d3df271d031c405255e99410628c26a8f0d2b0" },
  "fzf-lua": { "branch": "main", "commit": "e1046726cf0cedf15ae0ff40537a421b79968c3e" },
  "gitsigns.nvim": { "branch": "main", "commit": "af0f583cd35286dd6f0e3ed52622728703237e50" },
  "lazy.nvim": { "branch": "main", "commit": "96584866b9c5e998cbae300594d0ccfd0c464627" },
  "lualine.nvim": { "branch": "master", "commit": "2248ef254d0a1488a72041cfb45ca9caada6d994" },
  "mason-lspconfig.nvim": { "branch": "main", "commit": "9453e3d6cd2ca45d96e20f343e8f1b927364b630" },
  "mason.nvim": { "branch": "main", "commit": "41e75af1f578e55ba050c863587cffde3556ffa6" },
  "mini.comment": { "branch": "main", "commit": "3d9c8009615857e982f09bc5357fc95f2a2175f3" },
  "mini.indentscope": { "branch": "main", "commit": "c8fdafa7bf603d758986a27eb546c55a5c73b1a3" },
  "mini.move": { "branch": "main", "commit": "b3bca8e493f8d1da343ff1be06c21a47e2fde1c0" },
  "mini.surround": { "branch": "main", "commit": "af8129efcabe95fc08a233e9f91569829bed031f" },
  "neodev.nvim": { "branch": "main", "commit": "7d4e7ecede7f43b5d62b2a8bb82ffec34f1265d4" },
  "nvim-autopairs": { "branch": "master", "commit": "0f04d78619cce9a5af4f355968040f7d675854a1" },
  "nvim-cmp": { "branch": "main", "commit": "0b751f6beef40fd47375eaf53d3057e0bfa317e4" },
  "nvim-lspconfig": { "branch": "master", "commit": "6c797ff9324094e333e2ace9526ca4a62ad9d1ca" },
  "nvim-treesitter": { "branch": "master", "commit": "8996612bfbebe1657e1bb55a95201c96cab945c6" },
  "onedark.nvim": { "branch": "master", "commit": "c5476a091b0f1b4e853db91c91ff941f848a1cdd" },
  "playground": { "branch": "master", "commit": "ba48c6a62a280eefb7c85725b0915e021a1a0749" },
  "todo-comments.nvim": { "branch": "main", "commit": "4a6737a8d70fe1ac55c64dfa47fcb189ca431872" },
  "vim-table-mode": { "branch": "master", "commit": "4ff8de2ac93431ee6d85a9e04177012752e6abdc" },
  "which-key.nvim": { "branch": "main", "commit": "4433e5ec9a507e5097571ed55c02ea9658fb268a" }
}